DBA3702 Assignment 1
…
Question 1.1: Data Exploration

a) Load packages and read data

library(dplyr)
library(tibble)

employees <- read.csv("data/employees.csv")

b) Convert to tibble and display first 10 rows

employees <- as_tibble(employees)
print(employees, n = 10)

# A tibble: 50 × 8
   employee_id name          department role  years_exp salary performance_score
         <int> <chr>         <chr>      <chr>     <int>  <int>             <dbl>
 1           1 Alice Chen    Engineeri… Seni…         8  95000               4.5
 2           2 Bob Martinez  Engineeri… Lead         12 120000               4.8
 3           3 Charlie Kim   Engineeri… Juni…         2  65000               3.8
 4           4 Diana Patel   Engineeri… Seni…         7  92000               4.2
 5           5 Eve Thompson  Engineeri… Mana…        15 140000               4.6
 6           6 Frank Liu     Engineeri… Juni…         1  58000               3.2
 7           7 Grace Okonkwo Engineeri… Seni…         9  98000               4.4
 8           8 Henry Wang    Marketing  Lead         10 105000               4.3
 9           9 Iris Nakamura Marketing  Seni…         6  82000               3.9
10          10 Jack Brown    Marketing  Juni…         2  55000               3.5
# ℹ 40 more rows
# ℹ 1 more variable: projects_completed <int>
…
The dataset includes information about 50 employees with 8 variables. This includes basic information, such as employee name and department, as well as quantitative information, such as salary, years of experience, performance scores, and number of projects completed.

Question 1.2: Selecting and Filtering

d) Select specific columns

employees %>%
  select(name, department, role, performance_score)

# A tibble: 50 × 4
   name          department  role    performance_score
   <chr>         <chr>       <chr>               <dbl>
 1 Alice Chen    Engineering Senior                4.5
 2 Bob Martinez  Engineering Lead                  4.8
 3 Charlie Kim   Engineering Junior                3.8
 4 Diana Patel   Engineering Senior                4.2
 5 Eve Thompson  Engineering Manager               4.6
 6 Frank Liu     Engineering Junior                3.2
 7 Grace Okonkwo Engineering Senior                4.4
 8 Henry Wang    Marketing   Lead                  4.3
 9 Iris Nakamura Marketing   Senior                3.9
10 Jack Brown    Marketing   Junior                3.5
# ℹ 40 more rows

e) Select employees with performance > 4.0

high_performers <- employees %>%
  filter(performance_score > 4.0)
high_performers

# A tibble: 23 × 8
   employee_id name          department role  years_exp salary performance_score
         <int> <chr>         <chr>      <chr>     <int>  <int>             <dbl>
 1           1 Alice Chen    Engineeri… Seni…         8  95000               4.5
 2           2 Bob Martinez  Engineeri… Lead         12 120000               4.8
 3           4 Diana Patel   Engineeri… Seni…         7  92000               4.2
 4           5 Eve Thompson  Engineeri… Mana…        15 140000               4.6
 5           7 Grace Okonkwo Engineeri… Seni…         9  98000               4.4
 6           8 Henry Wang    Marketing  Lead         10 105000               4.3
 7          11 Kate Wilson   Marketing  Mana…        14 125000               4.5
 8          14 Nathan Lee    Sales      Lead         11 115000               4.7
 9          15 Olivia Davis  Sales      Seni…         8  88000               4.1
10          18 Rachel Green  Sales      Mana…        13 130000               4.4
# ℹ 13 more rows
# ℹ 1 more variable: projects_completed <int>
…
g) Select columns using helpers

employees %>%
  select(contains("score") | starts_with("p"))

# A tibble: 50 × 2
   performance_score projects_completed
               <dbl>              <int>
 1               4.5                 15
 2               4.8                 22
 3               3.8                  5
 4               4.2                 12
 5               4.6                 28
 6               3.2                  3
 7               4.4                 16
 8               4.3                 18
 9               3.9                 11
10               3.5                  4
# ℹ 40 more rows
…
i) Sort by department, then performance

employees %>%
  arrange(department, desc(performance_score))

# A tibble: 50 × 8
   employee_id name          department role  years_exp salary performance_score
         <int> <chr>         <chr>      <chr>     <int>  <int>             <dbl>
 1          42 Paula Hughes  Engineeri… Mana…        16 145000               4.9
 2           2 Bob Martinez  Engineeri… Lead         12 120000               4.8
 3           5 Eve Thompson  Engineeri… Mana…        15 140000               4.6
 4           1 Alice Chen    Engineeri… Seni…         8  95000               4.5
 5          41 Oscar Rivera  Engineeri… Lead         11 118000               4.5
 6           7 Grace Okonkwo Engineeri… Seni…         9  98000               4.4
 7           4 Diana Patel   Engineeri… Seni…         7  92000               4.2
 8          47 Ulrich Weber  Engineeri… Seni…         7  94000               4.2
 9          31 Eric Zhang    Engineeri… Seni…         6  88000               4  
10          32 Fiona O'Brien Engineeri… Juni…         3  68000               3.9
# ℹ 40 more rows
# ℹ 1 more variable: projects_completed <int>
…
Question 1.4: Creating New Variables

k) Salary per year of experience

employees %>%
  mutate(salary_per_year_exp = salary / years_exp) %>%
  select(name, salary, years_exp, salary_per_year_exp)

# A tibble: 50 × 4
   name          salary years_exp salary_per_year_exp
   <chr>          <int>     <int>               <dbl>
 1 Alice Chen     95000         8              11875 
 2 Bob Martinez  120000        12              10000 
 3 Charlie Kim    65000         2              32500 
 4 Diana Patel    92000         7              13143.
 5 Eve Thompson  140000        15               9333.
 6 Frank Liu      58000         1              58000 
 7 Grace Okonkwo  98000         9              10889.
 8 Henry Wang    105000        10              10500 
 9 Iris Nakamura  82000         6              13667.
10 Jack Brown     55000         2              27500 
# ℹ 40 more rows

l) Performance category

employees_cat <- employees %>%
  mutate(performance_category = case_when(
    performance_score >= 4.5 ~ "Outstanding",
    performance_score >= 3.5 ~ "Exceeds Expectations",
    performance_score >= 2.5 ~ "Meets Expectations",
    TRUE ~ "Needs Improvement"
  ))

employees_cat %>%
  select(name, performance_score, performance_category)

# A tibble: 50 × 3
   name          performance_score performance_category
   <chr>                     <dbl> <chr>               
 1 Alice Chen                  4.5 Outstanding         
 2 Bob Martinez                4.8 Outstanding         
 3 Charlie Kim                 3.8 Exceeds Expectations
 4 Diana Patel                 4.2 Exceeds Expectations
 5 Eve Thompson                4.6 Outstanding         
 6 Frank Liu                   3.2 Meets Expectations  
 7 Grace Okonkwo               4.4 Exceeds Expectations
 8 Henry Wang                  4.3 Exceeds Expectations
 9 Iris Nakamura               3.9 Exceeds Expectations
10 Jack Brown                  3.5 Exceeds Expectations
# ℹ 40 more rows

m) Experience level

employees_exp <- employees %>%
  mutate(experience_level = case_when(
    years_exp <= 3 ~ "Entry",
    years_exp <= 7 ~ "Mid",
    years_exp <= 12 ~ "Senior",
    TRUE ~ "Expert"
  ))

employees_exp %>%
  select(name, years_exp, experience_level)

# A tibble: 50 × 3
   name          years_exp experience_level
   <chr>             <int> <chr>           
 1 Alice Chen            8 Senior          
 2 Bob Martinez         12 Senior          
 3 Charlie Kim           2 Entry           
 4 Diana Patel           7 Mid             
 5 Eve Thompson         15 Expert          
 6 Frank Liu             1 Entry           
 7 Grace Okonkwo         9 Senior          
 8 Henry Wang           10 Senior          
 9 Iris Nakamura         6 Mid             
10 Jack Brown            2 Entry           
# ℹ 40 more rows

n) High performer flag

employees %>%
  mutate(is_high_performer = performance_score > 4.0 & projects_completed >= 10) %>%
  filter(is_high_performer) %>%
  select(name, department, performance_score, projects_completed)

# A tibble: 23 × 4
   name          department  performance_score projects_completed
   <chr>         <chr>                   <dbl>              <int>
 1 Alice Chen    Engineering               4.5                 15
 2 Bob Martinez  Engineering               4.8                 22
 3 Diana Patel   Engineering               4.2                 12
 4 Eve Thompson  Engineering               4.6                 28
 5 Grace Okonkwo Engineering               4.4                 16
 6 Henry Wang    Marketing                 4.3                 18
 7 Kate Wilson   Marketing                 4.5                 24
 8 Nathan Lee    Sales                     4.7                 21
 9 Olivia Davis  Sales                     4.1                 14
10 Rachel Green  Sales                     4.4                 25
# ℹ 13 more rows
…
Managers in the Engineering department have the highest salary on average.

r) Individual employees’ salary as % of department average

employees %>%
  group_by(department) %>%
  mutate(
    dept_avg = mean(salary),
    pct_of_avg = salary / dept_avg * 100
  ) %>%
  ungroup() %>%
  arrange(desc(pct_of_avg)) %>%
  select(name, department, salary, dept_avg, pct_of_avg)

# A tibble: 50 × 5
   name          department  salary dept_avg pct_of_avg
   <chr>         <chr>        <int>    <dbl>      <dbl>
 1 Bella Moore   Finance     135000   86333.       156.
 2 Kate Wilson   Marketing   125000   80700        155.
 3 Rachel Green  Sales       130000   87600        148.
 4 Paula Hughes  Engineering 145000   98417.       147.
 5 Wendy Clark   HR          110000   75556.       146.
 6 Eve Thompson  Engineering 140000   98417.       142.
 7 Nathan Lee    Sales       115000   87600        131.
 8 Henry Wang    Marketing   105000   80700        130.
 9 Rosa Martinez Sales       112000   87600        128.
10 Tina White    HR           95000   75556.       126.
# ℹ 40 more rows
…
